…
# Controlling for batch effects and other factors


``` r
gene_fits <- fit_models(cds_subset, model_formula_str = "~embryo.time + batch")
fit_coefs <- coefficient_table(gene_fits)
fit_coefs %>% filter(term != "(Intercept)") %>%
      select(gene_short_name, term, q_value, estimate)
```

```
## # A tibble: 42 × 4
##    gene_short_name term                                 q_value estimate
##    <chr>           <chr>                                  <dbl>    <dbl>
##  1 ham-1           embryo.time                        3.65e- 27 -0.00276
##  2 ham-1           batchWaterston_400_minutes         2.28e-  3  0.212  
##  3 ham-1           batchWaterston_500_minutes_batch_1 5.35e-  3 -0.357  
##  4 ham-1           batchWaterston_500_minutes_batch_2 4.24e-  9 -1.40   
##  5 ham-1           batchMurray_r17                    7.02e-  1  0.0932 
##  6 ham-1           batchMurray_b01                    2.34e-  1 -0.187  
##  7 ham-1           batchMurray_b02                    1.68e-  1 -0.451  
##  8 dmd-6           embryo.time                        2.61e-150  0.00713
##  9 dmd-6           batchWaterston_400_minutes         1.08e-  6  2.18   
## 10 dmd-6           batchWaterston_500_minutes_batch_1 3.28e- 12  3.00   
## # ℹ 32 more rows
```
…
